{
    "openapi": "3.0.0",
    "info": {
        "title": "API de Ejemplo",
        "version": "1.0"
    },
    "paths": {
        "/api/characters": {
            "get": {
                "tags": [
                    "Character"
                ],
                "operationId": "b89eed73f42f11f6e3afbccd84f62265",
                "responses": {
                    "200": {
                        "description": "List all characters"
                    }
                }
            },
            "post": {
                "tags": [
                    "Character"
                ],
                "operationId": "a8de8ab5d616b20f7153f980bd8c7ec7",
                "requestBody": {
                    "required": true,
                    "content": {
                        "application/json": {
                            "schema": {
                                "properties": {
                                    "name": {
                                        "type": "string"
                                    },
                                    "status": {
                                        "type": "string"
                                    },
                                    "species": {
                                        "type": "string"
                                    },
                                    "type": {
                                        "type": "string"
                                    },
                                    "gender": {
                                        "type": "string"
                                    },
                                    "image": {
                                        "type": "string"
                                    }
                                },
                                "type": "object"
                            }
                        }
                    }
                },
                "responses": {
                    "201": {
                        "description": "Character created"
                    }
                }
            }
        },
        "/api/characters/{id}": {
            "get": {
                "tags": [
                    "Character"
                ],
                "operationId": "74fa7c6199f2e8e1e205c6c4092f0a02",
                "parameters": [
                    {
                        "name": "id",
                        "in": "path",
                        "required": true,
                        "schema": {
                            "type": "integer"
                        }
                    }
                ],
                "responses": {
                    "200": {
                        "description": "Get character by ID"
                    }
                }
            },
            "put": {
                "tags": [
                    "Character"
                ],
                "operationId": "a9ebf9a127ef5f2c3c159396645bb127",
                "parameters": [
                    {
                        "name": "id",
                        "in": "path",
                        "required": true,
                        "schema": {
                            "type": "integer"
                        }
                    }
                ],
                "requestBody": {
                    "required": true,
                    "content": {
                        "application/json": {
                            "schema": {
                                "properties": {
                                    "name": {
                                        "type": "string"
                                    },
                                    "status": {
                                        "type": "string"
                                    },
                                    "species": {
                                        "type": "string"
                                    },
                                    "type": {
                                        "type": "string"
                                    },
                                    "gender": {
                                        "type": "string"
                                    },
                                    "image": {
                                        "type": "string"
                                    }
                                },
                                "type": "object"
                            }
                        }
                    }
                },
                "responses": {
                    "200": {
                        "description": "Update character"
                    }
                }
            },
            "delete": {
                "tags": [
                    "Character"
                ],
                "operationId": "136d2cdfc84c754471d41c28edd9aad7",
                "parameters": [
                    {
                        "name": "id",
                        "in": "path",
                        "required": true,
                        "schema": {
                            "type": "integer"
                        }
                    }
                ],
                "responses": {
                    "204": {
                        "description": "Delete character"
                    }
                }
            }
        },
        "/api/episodes": {
            "get": {
                "tags": [
                    "Episode"
                ],
                "operationId": "20f777ad2828ff7da1e9e8d862b866c1",
                "responses": {
                    "200": {
                        "description": "List all episodes"
                    }
                }
            },
            "post": {
                "tags": [
                    "Episode"
                ],
                "operationId": "5c4fe108693c177d616055bd6c9cf835",
                "requestBody": {
                    "required": true,
                    "content": {
                        "application/json": {
                            "schema": {
                                "properties": {
                                    "name": {
                                        "type": "string"
                                    },
                                    "air_date": {
                                        "type": "string",
                                        "format": "date"
                                    },
                                    "episode": {
                                        "type": "string"
                                    }
                                },
                                "type": "object"
                            }
                        }
                    }
                },
                "responses": {
                    "201": {
                        "description": "Episode created"
                    }
                }
            }
        },
        "/api/episodes/{id}": {
            "get": {
                "tags": [
                    "Episode"
                ],
                "operationId": "bf1f214dbe0cc7bf74b9791f6447086d",
                "parameters": [
                    {
                        "name": "id",
                        "in": "path",
                        "required": true,
                        "schema": {
                            "type": "integer"
                        }
                    }
                ],
                "responses": {
                    "200": {
                        "description": "Get episode by ID"
                    }
                }
            },
            "put": {
                "tags": [
                    "Episode"
                ],
                "operationId": "0ad3e8a2338a28935c8e635ddfc2837f",
                "parameters": [
                    {
                        "name": "id",
                        "in": "path",
                        "required": true,
                        "schema": {
                            "type": "integer"
                        }
                    }
                ],
                "requestBody": {
                    "required": true,
                    "content": {
                        "application/json": {
                            "schema": {
                                "properties": {
                                    "name": {
                                        "type": "string"
                                    },
                                    "air_date": {
                                        "type": "string",
                                        "format": "date"
                                    },
                                    "episode": {
                                        "type": "string"
                                    }
                                },
                                "type": "object"
                            }
                        }
                    }
                },
                "responses": {
                    "200": {
                        "description": "Update episode"
                    }
                }
            },
            "delete": {
                "tags": [
                    "Episode"
                ],
                "operationId": "1fdc7a408b6eafff4ad16858524d5f53",
                "parameters": [
                    {
                        "name": "id",
                        "in": "path",
                        "required": true,
                        "schema": {
                            "type": "integer"
                        }
                    }
                ],
                "responses": {
                    "204": {
                        "description": "Delete episode"
                    }
                }
            }
        }
    }
}